﻿{
  "profiles": {
    "biztechfit": {
      "commandName": "Project",
      "launchBrowser": true,
      "launchUrl": "http://localhost:5000/api/user",
      "applicationUrl": "http://localhost:5000;",
      "environmentVariables": {
        "ASPNETCORE_ENVIRONMENT": "Development"
      }
    }
  }
}